<svg width="2028" height="1024" viewBox="0 0 2028 1024" fill="none" xmlns="http://www.w3.org/2000/svg">
<g clip-path="url(#clip0_1006_6431)">
<path d="M2 131.95V46.0407L78 3L154 46.0407V131.95L78 175L2 131.95Z" fill="url(#paint0_linear_1006_6431)" fill-opacity="0.1" style="mix-blend-mode:soft-light"/>
<path d="M158 131.95V46.0407L234 3L310 46.0407V131.95L234 175L158 131.95Z" fill="url(#paint1_linear_1006_6431)" fill-opacity="0.1" style="mix-blend-mode:soft-light"/>
<path d="M314 131.95V46.0407L390 3L466 46.0407V131.95L390 175L314 131.95Z" fill="url(#paint2_linear_1006_6431)" fill-opacity="0.1" style="mix-blend-mode:soft-light"/>
<path d="M470 131.95V46.0407L546 3L622 46.0407V131.95L546 175L470 131.95Z" fill="url(#paint3_linear_1006_6431)" fill-opacity="0.1" style="mix-blend-mode:soft-light"/>
<path d="M626 131.95V46.0407L702 3L778 46.0407V131.95L702 175L626 131.95Z" fill="url(#paint4_linear_1006_6431)" fill-opacity="0.1" style="mix-blend-mode:soft-light"/>
<path d="M782 131.95V46.0407L858 3L934 46.0407V131.95L858 175L782 131.95Z" fill="url(#paint5_linear_1006_6431)" fill-opacity="0.1" style="mix-blend-mode:soft-light"/>
<path d="M938 131.95V46.0407L1014 3L1090 46.0407V131.95L1014 175L938 131.95Z" fill="url(#paint6_linear_1006_6431)" fill-opacity="0.1" style="mix-blend-mode:soft-light"/>
<path d="M1094 131.95V46.0407L1170 3L1246 46.0407V131.95L1170 175L1094 131.95Z" fill="url(#paint7_linear_1006_6431)" fill-opacity="0.1" style="mix-blend-mode:soft-light"/>
<path d="M1250 131.95V46.0407L1326 3L1402 46.0407V131.95L1326 175L1250 131.95Z" fill="url(#paint8_linear_1006_6431)" fill-opacity="0.1" style="mix-blend-mode:soft-light"/>
<path d="M1406 131.95V46.0407L1482 3L1558 46.0407V131.95L1482 175L1406 131.95Z" fill="url(#paint9_linear_1006_6431)" fill-opacity="0.1" style="mix-blend-mode:soft-light"/>
<path d="M1562 131.95V46.0407L1638 3L1714 46.0407V131.95L1638 175L1562 131.95Z" fill="url(#paint10_linear_1006_6431)" fill-opacity="0.1" style="mix-blend-mode:soft-light"/>
<path d="M1718 131.95V46.0407L1794 3L1870 46.0407V131.95L1794 175L1718 131.95Z" fill="url(#paint11_linear_1006_6431)" fill-opacity="0.1" style="mix-blend-mode:soft-light"/>
<path d="M1874 131.95V46.0407L1950 3L2026 46.0407V131.95L1950 175L1874 131.95Z" fill="url(#paint12_linear_1006_6431)" fill-opacity="0.1" style="mix-blend-mode:soft-light"/>
<path d="M-76 263.95V178.041L0 135L76 178.041V263.95L0 307L-76 263.95Z" fill="url(#paint13_linear_1006_6431)" fill-opacity="0.1" style="mix-blend-mode:soft-light"/>
<path d="M80 263.95V178.041L156 135L232 178.041V263.95L156 307L80 263.95Z" fill="url(#paint14_linear_1006_6431)" fill-opacity="0.1" style="mix-blend-mode:soft-light"/>
<path d="M236 263.95V178.041L312 135L388 178.041V263.95L312 307L236 263.95Z" fill="url(#paint15_linear_1006_6431)" fill-opacity="0.1" style="mix-blend-mode:soft-light"/>
<path d="M392 263.95V178.041L468 135L544 178.041V263.95L468 307L392 263.95Z" fill="url(#paint16_linear_1006_6431)" fill-opacity="0.1" style="mix-blend-mode:soft-light"/>
<path d="M548 263.95V178.041L624 135L700 178.041V263.95L624 307L548 263.95Z" fill="url(#paint17_linear_1006_6431)" fill-opacity="0.1" style="mix-blend-mode:soft-light"/>
<path d="M704 263.95V178.041L780 135L856 178.041V263.95L780 307L704 263.95Z" fill="url(#paint18_linear_1006_6431)" fill-opacity="0.1" style="mix-blend-mode:soft-light"/>
<path d="M860 263.95V178.041L936 135L1012 178.041V263.95L936 307L860 263.95Z" fill="url(#paint19_linear_1006_6431)" fill-opacity="0.1" style="mix-blend-mode:soft-light"/>
<path d="M1016 263.95V178.041L1092 135L1168 178.041V263.95L1092 307L1016 263.95Z" fill="url(#paint20_linear_1006_6431)" fill-opacity="0.1" style="mix-blend-mode:soft-light"/>
<path d="M1172 263.95V178.041L1248 135L1324 178.041V263.95L1248 307L1172 263.95Z" fill="url(#paint21_linear_1006_6431)" fill-opacity="0.1" style="mix-blend-mode:soft-light"/>
<path d="M1328 263.95V178.041L1404 135L1480 178.041V263.95L1404 307L1328 263.95Z" fill="url(#paint22_linear_1006_6431)" fill-opacity="0.1" style="mix-blend-mode:soft-light"/>
<path d="M1484 263.95V178.041L1560 135L1636 178.041V263.95L1560 307L1484 263.95Z" fill="url(#paint23_linear_1006_6431)" fill-opacity="0.1" style="mix-blend-mode:soft-light"/>
<path d="M1640 263.95V178.041L1716 135L1792 178.041V263.95L1716 307L1640 263.95Z" fill="url(#paint24_linear_1006_6431)" fill-opacity="0.1" style="mix-blend-mode:soft-light"/>
<path d="M1796 263.95V178.041L1872 135L1948 178.041V263.95L1872 307L1796 263.95Z" fill="url(#paint25_linear_1006_6431)" fill-opacity="0.1" style="mix-blend-mode:soft-light"/>
<path d="M1952 263.95V178.041L2028 135L2104 178.041V263.95L2028 307L1952 263.95Z" fill="url(#paint26_linear_1006_6431)" fill-opacity="0.1" style="mix-blend-mode:soft-light"/>
<path d="M2 395.95V310.041L78 267L154 310.041V395.95L78 439L2 395.95Z" fill="url(#paint27_linear_1006_6431)" fill-opacity="0.1" style="mix-blend-mode:soft-light"/>
<path d="M158 395.95V310.041L234 267L310 310.041V395.95L234 439L158 395.95Z" fill="url(#paint28_linear_1006_6431)" fill-opacity="0.1" style="mix-blend-mode:soft-light"/>
<path d="M314 395.95V310.041L390 267L466 310.041V395.95L390 439L314 395.95Z" fill="url(#paint29_linear_1006_6431)" fill-opacity="0.1" style="mix-blend-mode:soft-light"/>
<path d="M470 395.95V310.041L546 267L622 310.041V395.95L546 439L470 395.95Z" fill="url(#paint30_linear_1006_6431)" fill-opacity="0.1" style="mix-blend-mode:soft-light"/>
<path d="M626 395.95V310.041L702 267L778 310.041V395.95L702 439L626 395.95Z" fill="url(#paint31_linear_1006_6431)" fill-opacity="0.1" style="mix-blend-mode:soft-light"/>
<path d="M782 395.95V310.041L858 267L934 310.041V395.95L858 439L782 395.95Z" fill="url(#paint32_linear_1006_6431)" fill-opacity="0.1" style="mix-blend-mode:soft-light"/>
<path d="M938 395.95V310.041L1014 267L1090 310.041V395.95L1014 439L938 395.95Z" fill="url(#paint33_linear_1006_6431)" fill-opacity="0.1" style="mix-blend-mode:soft-light"/>
<path d="M1094 395.95V310.041L1170 267L1246 310.041V395.95L1170 439L1094 395.95Z" fill="url(#paint34_linear_1006_6431)" fill-opacity="0.1" style="mix-blend-mode:soft-light"/>
<path d="M1250 395.95V310.041L1326 267L1402 310.041V395.95L1326 439L1250 395.95Z" fill="url(#paint35_linear_1006_6431)" fill-opacity="0.1" style="mix-blend-mode:soft-light"/>
<path d="M1406 395.95V310.041L1482 267L1558 310.041V395.95L1482 439L1406 395.95Z" fill="url(#paint36_linear_1006_6431)" fill-opacity="0.1" style="mix-blend-mode:soft-light"/>
<path d="M1562 395.95V310.041L1638 267L1714 310.041V395.95L1638 439L1562 395.95Z" fill="url(#paint37_linear_1006_6431)" fill-opacity="0.1" style="mix-blend-mode:soft-light"/>
<path d="M1718 395.95V310.041L1794 267L1870 310.041V395.95L1794 439L1718 395.95Z" fill="url(#paint38_linear_1006_6431)" fill-opacity="0.1" style="mix-blend-mode:soft-light"/>
<path d="M1874 395.95V310.041L1950 267L2026 310.041V395.95L1950 439L1874 395.95Z" fill="url(#paint39_linear_1006_6431)" fill-opacity="0.1" style="mix-blend-mode:soft-light"/>
<path d="M80 527.95V442.041L156 399L232 442.041V527.95L156 571L80 527.95Z" fill="url(#paint40_linear_1006_6431)" fill-opacity="0.1" style="mix-blend-mode:soft-light"/>
<path d="M-76 527.95V442.041L0 399L76 442.041V527.95L0 571L-76 527.95Z" fill="url(#paint41_linear_1006_6431)" fill-opacity="0.1" style="mix-blend-mode:soft-light"/>
<path d="M236 527.95V442.041L312 399L388 442.041V527.95L312 571L236 527.95Z" fill="url(#paint42_linear_1006_6431)" fill-opacity="0.1" style="mix-blend-mode:soft-light"/>
<path d="M392 527.95V442.041L468 399L544 442.041V527.95L468 571L392 527.95Z" fill="url(#paint43_linear_1006_6431)" fill-opacity="0.1" style="mix-blend-mode:soft-light"/>
<path d="M548 527.95V442.041L624 399L700 442.041V527.95L624 571L548 527.95Z" fill="url(#paint44_linear_1006_6431)" fill-opacity="0.1" style="mix-blend-mode:soft-light"/>
<path d="M704 527.95V442.041L780 399L856 442.041V527.95L780 571L704 527.95Z" fill="url(#paint45_linear_1006_6431)" fill-opacity="0.1" style="mix-blend-mode:soft-light"/>
<path d="M860 527.95V442.041L936 399L1012 442.041V527.95L936 571L860 527.95Z" fill="url(#paint46_linear_1006_6431)" fill-opacity="0.1" style="mix-blend-mode:soft-light"/>
<path d="M1016 527.95V442.041L1092 399L1168 442.041V527.95L1092 571L1016 527.95Z" fill="url(#paint47_linear_1006_6431)" fill-opacity="0.1" style="mix-blend-mode:soft-light"/>
<path d="M1172 527.95V442.041L1248 399L1324 442.041V527.95L1248 571L1172 527.95Z" fill="url(#paint48_linear_1006_6431)" fill-opacity="0.1" style="mix-blend-mode:soft-light"/>
<path d="M1328 527.95V442.041L1404 399L1480 442.041V527.95L1404 571L1328 527.95Z" fill="url(#paint49_linear_1006_6431)" fill-opacity="0.1" style="mix-blend-mode:soft-light"/>
<path d="M1484 527.95V442.041L1560 399L1636 442.041V527.95L1560 571L1484 527.95Z" fill="url(#paint50_linear_1006_6431)" fill-opacity="0.1" style="mix-blend-mode:soft-light"/>
<path d="M1640 527.95V442.041L1716 399L1792 442.041V527.95L1716 571L1640 527.95Z" fill="url(#paint51_linear_1006_6431)" fill-opacity="0.1" style="mix-blend-mode:soft-light"/>
<path d="M1796 527.95V442.041L1872 399L1948 442.041V527.95L1872 571L1796 527.95Z" fill="url(#paint52_linear_1006_6431)" fill-opacity="0.1" style="mix-blend-mode:soft-light"/>
<path d="M1952 527.95V442.041L2028 399L2104 442.041V527.95L2028 571L1952 527.95Z" fill="url(#paint53_linear_1006_6431)" fill-opacity="0.1" style="mix-blend-mode:soft-light"/>
<path d="M2 659.95V574.041L78 531L154 574.041V659.95L78 703L2 659.95Z" fill="url(#paint54_linear_1006_6431)" fill-opacity="0.1" style="mix-blend-mode:soft-light"/>
<path d="M158 659.95V574.041L234 531L310 574.041V659.95L234 703L158 659.95Z" fill="url(#paint55_linear_1006_6431)" fill-opacity="0.1" style="mix-blend-mode:soft-light"/>
<path d="M314 659.95V574.041L390 531L466 574.041V659.95L390 703L314 659.95Z" fill="url(#paint56_linear_1006_6431)" fill-opacity="0.1" style="mix-blend-mode:soft-light"/>
<path d="M470 659.95V574.041L546 531L622 574.041V659.95L546 703L470 659.95Z" fill="url(#paint57_linear_1006_6431)" fill-opacity="0.1" style="mix-blend-mode:soft-light"/>
<path d="M626 659.95V574.041L702 531L778 574.041V659.95L702 703L626 659.95Z" fill="url(#paint58_linear_1006_6431)" fill-opacity="0.1" style="mix-blend-mode:soft-light"/>
<path d="M782 659.95V574.041L858 531L934 574.041V659.95L858 703L782 659.95Z" fill="url(#paint59_linear_1006_6431)" fill-opacity="0.1" style="mix-blend-mode:soft-light"/>
<path d="M938 659.95V574.041L1014 531L1090 574.041V659.95L1014 703L938 659.95Z" fill="url(#paint60_linear_1006_6431)" fill-opacity="0.1" style="mix-blend-mode:soft-light"/>
<path d="M1094 659.95V574.041L1170 531L1246 574.041V659.95L1170 703L1094 659.95Z" fill="url(#paint61_linear_1006_6431)" fill-opacity="0.1" style="mix-blend-mode:soft-light"/>
<path d="M1250 659.95V574.041L1326 531L1402 574.041V659.95L1326 703L1250 659.95Z" fill="url(#paint62_linear_1006_6431)" fill-opacity="0.1" style="mix-blend-mode:soft-light"/>
<path d="M1406 659.95V574.041L1482 531L1558 574.041V659.95L1482 703L1406 659.95Z" fill="url(#paint63_linear_1006_6431)" fill-opacity="0.1" style="mix-blend-mode:soft-light"/>
<path d="M1562 659.95V574.041L1638 531L1714 574.041V659.95L1638 703L1562 659.95Z" fill="url(#paint64_linear_1006_6431)" fill-opacity="0.1" style="mix-blend-mode:soft-light"/>
<path d="M1718 659.95V574.041L1794 531L1870 574.041V659.95L1794 703L1718 659.95Z" fill="url(#paint65_linear_1006_6431)" fill-opacity="0.1" style="mix-blend-mode:soft-light"/>
<path d="M1874 659.95V574.041L1950 531L2026 574.041V659.95L1950 703L1874 659.95Z" fill="url(#paint66_linear_1006_6431)" fill-opacity="0.1" style="mix-blend-mode:soft-light"/>
<path d="M2 923.95V838.041L78 795L154 838.041V923.95L78 967L2 923.95Z" fill="url(#paint67_linear_1006_6431)" fill-opacity="0.1" style="mix-blend-mode:soft-light"/>
<path d="M158 923.95V838.041L234 795L310 838.041V923.95L234 967L158 923.95Z" fill="url(#paint68_linear_1006_6431)" fill-opacity="0.1" style="mix-blend-mode:soft-light"/>
<path d="M314 923.95V838.041L390 795L466 838.041V923.95L390 967L314 923.95Z" fill="url(#paint69_linear_1006_6431)" fill-opacity="0.1" style="mix-blend-mode:soft-light"/>
<path d="M470 923.95V838.041L546 795L622 838.041V923.95L546 967L470 923.95Z" fill="url(#paint70_linear_1006_6431)" fill-opacity="0.1" style="mix-blend-mode:soft-light"/>
<path d="M626 923.95V838.041L702 795L778 838.041V923.95L702 967L626 923.95Z" fill="url(#paint71_linear_1006_6431)" fill-opacity="0.1" style="mix-blend-mode:soft-light"/>
<path d="M782 923.95V838.041L858 795L934 838.041V923.95L858 967L782 923.95Z" fill="url(#paint72_linear_1006_6431)" fill-opacity="0.1" style="mix-blend-mode:soft-light"/>
<path d="M938 923.95V838.041L1014 795L1090 838.041V923.95L1014 967L938 923.95Z" fill="url(#paint73_linear_1006_6431)" fill-opacity="0.1" style="mix-blend-mode:soft-light"/>
<path d="M1094 923.95V838.041L1170 795L1246 838.041V923.95L1170 967L1094 923.95Z" fill="url(#paint74_linear_1006_6431)" fill-opacity="0.1" style="mix-blend-mode:soft-light"/>
<path d="M1250 923.95V838.041L1326 795L1402 838.041V923.95L1326 967L1250 923.95Z" fill="url(#paint75_linear_1006_6431)" fill-opacity="0.1" style="mix-blend-mode:soft-light"/>
<path d="M1406 923.95V838.041L1482 795L1558 838.041V923.95L1482 967L1406 923.95Z" fill="url(#paint76_linear_1006_6431)" fill-opacity="0.1" style="mix-blend-mode:soft-light"/>
<path d="M1562 923.95V838.041L1638 795L1714 838.041V923.95L1638 967L1562 923.95Z" fill="url(#paint77_linear_1006_6431)" fill-opacity="0.1" style="mix-blend-mode:soft-light"/>
<path d="M1718 923.95V838.041L1794 795L1870 838.041V923.95L1794 967L1718 923.95Z" fill="url(#paint78_linear_1006_6431)" fill-opacity="0.1" style="mix-blend-mode:soft-light"/>
<path d="M1874 923.95V838.041L1950 795L2026 838.041V923.95L1950 967L1874 923.95Z" fill="url(#paint79_linear_1006_6431)" fill-opacity="0.1" style="mix-blend-mode:soft-light"/>
<path d="M-76 791.95V706.041L0 663L76 706.041V791.95L0 835L-76 791.95Z" fill="url(#paint80_linear_1006_6431)" fill-opacity="0.1" style="mix-blend-mode:soft-light"/>
<path d="M80 791.95V706.041L156 663L232 706.041V791.95L156 835L80 791.95Z" fill="url(#paint81_linear_1006_6431)" fill-opacity="0.1" style="mix-blend-mode:soft-light"/>
<path d="M236 791.95V706.041L312 663L388 706.041V791.95L312 835L236 791.95Z" fill="url(#paint82_linear_1006_6431)" fill-opacity="0.1" style="mix-blend-mode:soft-light"/>
<path d="M392 791.95V706.041L468 663L544 706.041V791.95L468 835L392 791.95Z" fill="url(#paint83_linear_1006_6431)" fill-opacity="0.1" style="mix-blend-mode:soft-light"/>
<path d="M548 791.95V706.041L624 663L700 706.041V791.95L624 835L548 791.95Z" fill="url(#paint84_linear_1006_6431)" fill-opacity="0.1" style="mix-blend-mode:soft-light"/>
<path d="M704 791.95V706.041L780 663L856 706.041V791.95L780 835L704 791.95Z" fill="url(#paint85_linear_1006_6431)" fill-opacity="0.1" style="mix-blend-mode:soft-light"/>
<path d="M860 791.95V706.041L936 663L1012 706.041V791.95L936 835L860 791.95Z" fill="url(#paint86_linear_1006_6431)" fill-opacity="0.1" style="mix-blend-mode:soft-light"/>
<path d="M1016 791.95V706.041L1092 663L1168 706.041V791.95L1092 835L1016 791.95Z" fill="url(#paint87_linear_1006_6431)" fill-opacity="0.1" style="mix-blend-mode:soft-light"/>
<path d="M1172 791.95V706.041L1248 663L1324 706.041V791.95L1248 835L1172 791.95Z" fill="url(#paint88_linear_1006_6431)" fill-opacity="0.1" style="mix-blend-mode:soft-light"/>
<path d="M1328 791.95V706.041L1404 663L1480 706.041V791.95L1404 835L1328 791.95Z" fill="url(#paint89_linear_1006_6431)" fill-opacity="0.1" style="mix-blend-mode:soft-light"/>
<path d="M1484 791.95V706.041L1560 663L1636 706.041V791.95L1560 835L1484 791.95Z" fill="url(#paint90_linear_1006_6431)" fill-opacity="0.1" style="mix-blend-mode:soft-light"/>
<path d="M1640 791.95V706.041L1716 663L1792 706.041V791.95L1716 835L1640 791.95Z" fill="url(#paint91_linear_1006_6431)" fill-opacity="0.1" style="mix-blend-mode:soft-light"/>
<path d="M1796 791.95V706.041L1872 663L1948 706.041V791.95L1872 835L1796 791.95Z" fill="url(#paint92_linear_1006_6431)" fill-opacity="0.1" style="mix-blend-mode:soft-light"/>
<path d="M1952 791.95V706.041L2028 663L2104 706.041V791.95L2028 835L1952 791.95Z" fill="url(#paint93_linear_1006_6431)" fill-opacity="0.1" style="mix-blend-mode:soft-light"/>
<path d="M-76 1055.95V970.041L0 927L76 970.041V1055.95L0 1099L-76 1055.95Z" fill="url(#paint94_linear_1006_6431)" fill-opacity="0.1" style="mix-blend-mode:soft-light"/>
<path d="M80 1055.95V970.041L156 927L232 970.041V1055.95L156 1099L80 1055.95Z" fill="url(#paint95_linear_1006_6431)" fill-opacity="0.1" style="mix-blend-mode:soft-light"/>
<path d="M236 1055.95V970.041L312 927L388 970.041V1055.95L312 1099L236 1055.95Z" fill="url(#paint96_linear_1006_6431)" fill-opacity="0.1" style="mix-blend-mode:soft-light"/>
<path d="M392 1055.95V970.041L468 927L544 970.041V1055.95L468 1099L392 1055.95Z" fill="url(#paint97_linear_1006_6431)" fill-opacity="0.1" style="mix-blend-mode:soft-light"/>
<path d="M548 1055.95V970.041L624 927L700 970.041V1055.95L624 1099L548 1055.95Z" fill="url(#paint98_linear_1006_6431)" fill-opacity="0.1" style="mix-blend-mode:soft-light"/>
<path d="M704 1055.95V970.041L780 927L856 970.041V1055.95L780 1099L704 1055.95Z" fill="url(#paint99_linear_1006_6431)" fill-opacity="0.1" style="mix-blend-mode:soft-light"/>
<path d="M860 1055.95V970.041L936 927L1012 970.041V1055.95L936 1099L860 1055.95Z" fill="url(#paint100_linear_1006_6431)" fill-opacity="0.1" style="mix-blend-mode:soft-light"/>
<path d="M1016 1055.95V970.041L1092 927L1168 970.041V1055.95L1092 1099L1016 1055.95Z" fill="url(#paint101_linear_1006_6431)" fill-opacity="0.1" style="mix-blend-mode:soft-light"/>
<path d="M1172 1055.95V970.041L1248 927L1324 970.041V1055.95L1248 1099L1172 1055.95Z" fill="url(#paint102_linear_1006_6431)" fill-opacity="0.1" style="mix-blend-mode:soft-light"/>
<path d="M1328 1055.95V970.041L1404 927L1480 970.041V1055.95L1404 1099L1328 1055.95Z" fill="url(#paint103_linear_1006_6431)" fill-opacity="0.1" style="mix-blend-mode:soft-light"/>
<path d="M1484 1055.95V970.041L1560 927L1636 970.041V1055.95L1560 1099L1484 1055.95Z" fill="url(#paint104_linear_1006_6431)" fill-opacity="0.1" style="mix-blend-mode:soft-light"/>
<path d="M1640 1055.95V970.041L1716 927L1792 970.041V1055.95L1716 1099L1640 1055.95Z" fill="url(#paint105_linear_1006_6431)" fill-opacity="0.1" style="mix-blend-mode:soft-light"/>
<path d="M1796 1055.95V970.041L1872 927L1948 970.041V1055.95L1872 1099L1796 1055.95Z" fill="url(#paint106_linear_1006_6431)" fill-opacity="0.1" style="mix-blend-mode:soft-light"/>
<path d="M1952 1055.95V970.041L2028 927L2104 970.041V1055.95L2028 1099L1952 1055.95Z" fill="url(#paint107_linear_1006_6431)" fill-opacity="0.1" style="mix-blend-mode:soft-light"/>
<path d="M-76 -0.0502777V-85.9593L0 -129L76 -85.9593V-0.0502777L0 43L-76 -0.0502777Z" fill="url(#paint108_linear_1006_6431)" fill-opacity="0.1" style="mix-blend-mode:soft-light"/>
<path d="M80 -0.0502777V-85.9593L156 -129L232 -85.9593V-0.0502777L156 43L80 -0.0502777Z" fill="url(#paint109_linear_1006_6431)" fill-opacity="0.1" style="mix-blend-mode:soft-light"/>
<path d="M236 -0.0502777V-85.9593L312 -129L388 -85.9593V-0.0502777L312 43L236 -0.0502777Z" fill="url(#paint110_linear_1006_6431)" fill-opacity="0.1" style="mix-blend-mode:soft-light"/>
<path d="M392 -0.0502777V-85.9593L468 -129L544 -85.9593V-0.0502777L468 43L392 -0.0502777Z" fill="url(#paint111_linear_1006_6431)" fill-opacity="0.1" style="mix-blend-mode:soft-light"/>
<path d="M548 -0.0502777V-85.9593L624 -129L700 -85.9593V-0.0502777L624 43L548 -0.0502777Z" fill="url(#paint112_linear_1006_6431)" fill-opacity="0.1" style="mix-blend-mode:soft-light"/>
<path d="M704 -0.0502777V-85.9593L780 -129L856 -85.9593V-0.0502777L780 43L704 -0.0502777Z" fill="url(#paint113_linear_1006_6431)" fill-opacity="0.1" style="mix-blend-mode:soft-light"/>
<path d="M860 -0.0502777V-85.9593L936 -129L1012 -85.9593V-0.0502777L936 43L860 -0.0502777Z" fill="url(#paint114_linear_1006_6431)" fill-opacity="0.1" style="mix-blend-mode:soft-light"/>
<path d="M1016 -0.0502777V-85.9593L1092 -129L1168 -85.9593V-0.0502777L1092 43L1016 -0.0502777Z" fill="url(#paint115_linear_1006_6431)" fill-opacity="0.1" style="mix-blend-mode:soft-light"/>
<path d="M1172 -0.0502777V-85.9593L1248 -129L1324 -85.9593V-0.0502777L1248 43L1172 -0.0502777Z" fill="url(#paint116_linear_1006_6431)" fill-opacity="0.1" style="mix-blend-mode:soft-light"/>
<path d="M1328 -0.0502777V-85.9593L1404 -129L1480 -85.9593V-0.0502777L1404 43L1328 -0.0502777Z" fill="url(#paint117_linear_1006_6431)" fill-opacity="0.1" style="mix-blend-mode:soft-light"/>
<path d="M1484 -0.0502777V-85.9593L1560 -129L1636 -85.9593V-0.0502777L1560 43L1484 -0.0502777Z" fill="url(#paint118_linear_1006_6431)" fill-opacity="0.1" style="mix-blend-mode:soft-light"/>
<path d="M1640 -0.0502777V-85.9593L1716 -129L1792 -85.9593V-0.0502777L1716 43L1640 -0.0502777Z" fill="url(#paint119_linear_1006_6431)" fill-opacity="0.1" style="mix-blend-mode:soft-light"/>
<path d="M1796 -0.0502777V-85.9593L1872 -129L1948 -85.9593V-0.0502777L1872 43L1796 -0.0502777Z" fill="url(#paint120_linear_1006_6431)" fill-opacity="0.1" style="mix-blend-mode:soft-light"/>
<path d="M1952 -0.0502777V-85.9593L2028 -129L2104 -85.9593V-0.0502777L2028 43L1952 -0.0502777Z" fill="url(#paint121_linear_1006_6431)" fill-opacity="0.1" style="mix-blend-mode:soft-light"/>
</g>
<defs>
<linearGradient id="paint0_linear_1006_6431" x1="253.5" y1="175" x2="-23.8467" y2="58.7187" gradientUnits="userSpaceOnUse">
<stop/>
<stop offset="1" stop-color="white"/>
</linearGradient>
<linearGradient id="paint1_linear_1006_6431" x1="409.5" y1="175" x2="132.153" y2="58.7187" gradientUnits="userSpaceOnUse">
<stop/>
<stop offset="1" stop-color="white"/>
</linearGradient>
<linearGradient id="paint2_linear_1006_6431" x1="565.5" y1="175" x2="288.153" y2="58.7187" gradientUnits="userSpaceOnUse">
<stop/>
<stop offset="1" stop-color="white"/>
</linearGradient>
<linearGradient id="paint3_linear_1006_6431" x1="721.5" y1="175" x2="444.153" y2="58.7187" gradientUnits="userSpaceOnUse">
<stop/>
<stop offset="1" stop-color="white"/>
</linearGradient>
<linearGradient id="paint4_linear_1006_6431" x1="877.5" y1="175" x2="600.153" y2="58.7187" gradientUnits="userSpaceOnUse">
<stop/>
<stop offset="1" stop-color="white"/>
</linearGradient>
<linearGradient id="paint5_linear_1006_6431" x1="1033.5" y1="175" x2="756.153" y2="58.7187" gradientUnits="userSpaceOnUse">
<stop/>
<stop offset="1" stop-color="white"/>
</linearGradient>
<linearGradient id="paint6_linear_1006_6431" x1="1189.5" y1="175" x2="912.153" y2="58.7187" gradientUnits="userSpaceOnUse">
<stop/>
<stop offset="1" stop-color="white"/>
</linearGradient>
<linearGradient id="paint7_linear_1006_6431" x1="1345.5" y1="175" x2="1068.15" y2="58.7187" gradientUnits="userSpaceOnUse">
<stop/>
<stop offset="1" stop-color="white"/>
</linearGradient>
<linearGradient id="paint8_linear_1006_6431" x1="1501.5" y1="175" x2="1224.15" y2="58.7187" gradientUnits="userSpaceOnUse">
<stop/>
<stop offset="1" stop-color="white"/>
</linearGradient>
<linearGradient id="paint9_linear_1006_6431" x1="1657.5" y1="175" x2="1380.15" y2="58.7187" gradientUnits="userSpaceOnUse">
<stop/>
<stop offset="1" stop-color="white"/>
</linearGradient>
<linearGradient id="paint10_linear_1006_6431" x1="1813.5" y1="175" x2="1536.15" y2="58.7187" gradientUnits="userSpaceOnUse">
<stop/>
<stop offset="1" stop-color="white"/>
</linearGradient>
<linearGradient id="paint11_linear_1006_6431" x1="1969.5" y1="175" x2="1692.15" y2="58.7187" gradientUnits="userSpaceOnUse">
<stop/>
<stop offset="1" stop-color="white"/>
</linearGradient>
<linearGradient id="paint12_linear_1006_6431" x1="2125.5" y1="175" x2="1848.15" y2="58.7187" gradientUnits="userSpaceOnUse">
<stop/>
<stop offset="1" stop-color="white"/>
</linearGradient>
<linearGradient id="paint13_linear_1006_6431" x1="175.5" y1="307" x2="-101.847" y2="190.719" gradientUnits="userSpaceOnUse">
<stop/>
<stop offset="1" stop-color="white"/>
</linearGradient>
<linearGradient id="paint14_linear_1006_6431" x1="331.5" y1="307" x2="54.1533" y2="190.719" gradientUnits="userSpaceOnUse">
<stop/>
<stop offset="1" stop-color="white"/>
</linearGradient>
<linearGradient id="paint15_linear_1006_6431" x1="487.5" y1="307" x2="210.153" y2="190.719" gradientUnits="userSpaceOnUse">
<stop/>
<stop offset="1" stop-color="white"/>
</linearGradient>
<linearGradient id="paint16_linear_1006_6431" x1="643.5" y1="307" x2="366.153" y2="190.719" gradientUnits="userSpaceOnUse">
<stop/>
<stop offset="1" stop-color="white"/>
</linearGradient>
<linearGradient id="paint17_linear_1006_6431" x1="799.5" y1="307" x2="522.153" y2="190.719" gradientUnits="userSpaceOnUse">
<stop/>
<stop offset="1" stop-color="white"/>
</linearGradient>
<linearGradient id="paint18_linear_1006_6431" x1="955.5" y1="307" x2="678.153" y2="190.719" gradientUnits="userSpaceOnUse">
<stop/>
<stop offset="1" stop-color="white"/>
</linearGradient>
<linearGradient id="paint19_linear_1006_6431" x1="1111.5" y1="307" x2="834.153" y2="190.719" gradientUnits="userSpaceOnUse">
<stop/>
<stop offset="1" stop-color="white"/>
</linearGradient>
<linearGradient id="paint20_linear_1006_6431" x1="1267.5" y1="307" x2="990.153" y2="190.719" gradientUnits="userSpaceOnUse">
<stop/>
<stop offset="1" stop-color="white"/>
</linearGradient>
<linearGradient id="paint21_linear_1006_6431" x1="1423.5" y1="307" x2="1146.15" y2="190.719" gradientUnits="userSpaceOnUse">
<stop/>
<stop offset="1" stop-color="white"/>
</linearGradient>
<linearGradient id="paint22_linear_1006_6431" x1="1579.5" y1="307" x2="1302.15" y2="190.719" gradientUnits="userSpaceOnUse">
<stop/>
<stop offset="1" stop-color="white"/>
</linearGradient>
<linearGradient id="paint23_linear_1006_6431" x1="1735.5" y1="307" x2="1458.15" y2="190.719" gradientUnits="userSpaceOnUse">
<stop/>
<stop offset="1" stop-color="white"/>
</linearGradient>
<linearGradient id="paint24_linear_1006_6431" x1="1891.5" y1="307" x2="1614.15" y2="190.719" gradientUnits="userSpaceOnUse">
<stop/>
<stop offset="1" stop-color="white"/>
</linearGradient>
<linearGradient id="paint25_linear_1006_6431" x1="2047.5" y1="307" x2="1770.15" y2="190.719" gradientUnits="userSpaceOnUse">
<stop/>
<stop offset="1" stop-color="white"/>
</linearGradient>
<linearGradient id="paint26_linear_1006_6431" x1="2203.5" y1="307" x2="1926.15" y2="190.719" gradientUnits="userSpaceOnUse">
<stop/>
<stop offset="1" stop-color="white"/>
</linearGradient>
<linearGradient id="paint27_linear_1006_6431" x1="253.5" y1="439" x2="-23.8467" y2="322.719" gradientUnits="userSpaceOnUse">
<stop/>
<stop offset="1" stop-color="white"/>
</linearGradient>
<linearGradient id="paint28_linear_1006_6431" x1="409.5" y1="439" x2="132.153" y2="322.719" gradientUnits="userSpaceOnUse">
<stop/>
<stop offset="1" stop-color="white"/>
</linearGradient>
<linearGradient id="paint29_linear_1006_6431" x1="565.5" y1="439" x2="288.153" y2="322.719" gradientUnits="userSpaceOnUse">
<stop/>
<stop offset="1" stop-color="white"/>
</linearGradient>
<linearGradient id="paint30_linear_1006_6431" x1="721.5" y1="439" x2="444.153" y2="322.719" gradientUnits="userSpaceOnUse">
<stop/>
<stop offset="1" stop-color="white"/>
</linearGradient>
<linearGradient id="paint31_linear_1006_6431" x1="877.5" y1="439" x2="600.153" y2="322.719" gradientUnits="userSpaceOnUse">
<stop/>
<stop offset="1" stop-color="white"/>
</linearGradient>
<linearGradient id="paint32_linear_1006_6431" x1="1033.5" y1="439" x2="756.153" y2="322.719" gradientUnits="userSpaceOnUse">
<stop/>
<stop offset="1" stop-color="white"/>
</linearGradient>
<linearGradient id="paint33_linear_1006_6431" x1="1189.5" y1="439" x2="912.153" y2="322.719" gradientUnits="userSpaceOnUse">
<stop/>
<stop offset="1" stop-color="white"/>
</linearGradient>
<linearGradient id="paint34_linear_1006_6431" x1="1345.5" y1="439" x2="1068.15" y2="322.719" gradientUnits="userSpaceOnUse">
<stop/>
<stop offset="1" stop-color="white"/>
</linearGradient>
<linearGradient id="paint35_linear_1006_6431" x1="1501.5" y1="439" x2="1224.15" y2="322.719" gradientUnits="userSpaceOnUse">
<stop/>
<stop offset="1" stop-color="white"/>
</linearGradient>
<linearGradient id="paint36_linear_1006_6431" x1="1657.5" y1="439" x2="1380.15" y2="322.719" gradientUnits="userSpaceOnUse">
<stop/>
<stop offset="1" stop-color="white"/>
</linearGradient>
<linearGradient id="paint37_linear_1006_6431" x1="1813.5" y1="439" x2="1536.15" y2="322.719" gradientUnits="userSpaceOnUse">
<stop/>
<stop offset="1" stop-color="white"/>
</linearGradient>
<linearGradient id="paint38_linear_1006_6431" x1="1969.5" y1="439" x2="1692.15" y2="322.719" gradientUnits="userSpaceOnUse">
<stop/>
<stop offset="1" stop-color="white"/>
</linearGradient>
<linearGradient id="paint39_linear_1006_6431" x1="2125.5" y1="439" x2="1848.15" y2="322.719" gradientUnits="userSpaceOnUse">
<stop/>
<stop offset="1" stop-color="white"/>
</linearGradient>
<linearGradient id="paint40_linear_1006_6431" x1="331.5" y1="571" x2="54.1533" y2="454.719" gradientUnits="userSpaceOnUse">
<stop/>
<stop offset="1" stop-color="white"/>
</linearGradient>
<linearGradient id="paint41_linear_1006_6431" x1="175.5" y1="571" x2="-101.847" y2="454.719" gradientUnits="userSpaceOnUse">
<stop/>
<stop offset="1" stop-color="white"/>
</linearGradient>
<linearGradient id="paint42_linear_1006_6431" x1="487.5" y1="571" x2="210.153" y2="454.719" gradientUnits="userSpaceOnUse">
<stop/>
<stop offset="1" stop-color="white"/>
</linearGradient>
<linearGradient id="paint43_linear_1006_6431" x1="643.5" y1="571" x2="366.153" y2="454.719" gradientUnits="userSpaceOnUse">
<stop/>
<stop offset="1" stop-color="white"/>
</linearGradient>
<linearGradient id="paint44_linear_1006_6431" x1="799.5" y1="571" x2="522.153" y2="454.719" gradientUnits="userSpaceOnUse">
<stop/>
<stop offset="1" stop-color="white"/>
</linearGradient>
<linearGradient id="paint45_linear_1006_6431" x1="955.5" y1="571" x2="678.153" y2="454.719" gradientUnits="userSpaceOnUse">
<stop/>
<stop offset="1" stop-color="white"/>
</linearGradient>
<linearGradient id="paint46_linear_1006_6431" x1="1111.5" y1="571" x2="834.153" y2="454.719" gradientUnits="userSpaceOnUse">
<stop/>
<stop offset="1" stop-color="white"/>
</linearGradient>
<linearGradient id="paint47_linear_1006_6431" x1="1267.5" y1="571" x2="990.153" y2="454.719" gradientUnits="userSpaceOnUse">
<stop/>
<stop offset="1" stop-color="white"/>
</linearGradient>
<linearGradient id="paint48_linear_1006_6431" x1="1423.5" y1="571" x2="1146.15" y2="454.719" gradientUnits="userSpaceOnUse">
<stop/>
<stop offset="1" stop-color="white"/>
</linearGradient>
<linearGradient id="paint49_linear_1006_6431" x1="1579.5" y1="571" x2="1302.15" y2="454.719" gradientUnits="userSpaceOnUse">
<stop/>
<stop offset="1" stop-color="white"/>
</linearGradient>
<linearGradient id="paint50_linear_1006_6431" x1="1735.5" y1="571" x2="1458.15" y2="454.719" gradientUnits="userSpaceOnUse">
<stop/>
<stop offset="1" stop-color="white"/>
</linearGradient>
<linearGradient id="paint51_linear_1006_6431" x1="1891.5" y1="571" x2="1614.15" y2="454.719" gradientUnits="userSpaceOnUse">
<stop/>
<stop offset="1" stop-color="white"/>
</linearGradient>
<linearGradient id="paint52_linear_1006_6431" x1="2047.5" y1="571" x2="1770.15" y2="454.719" gradientUnits="userSpaceOnUse">
<stop/>
<stop offset="1" stop-color="white"/>
</linearGradient>
<linearGradient id="paint53_linear_1006_6431" x1="2203.5" y1="571" x2="1926.15" y2="454.719" gradientUnits="userSpaceOnUse">
<stop/>
<stop offset="1" stop-color="white"/>
</linearGradient>
<linearGradient id="paint54_linear_1006_6431" x1="253.5" y1="703" x2="-23.8467" y2="586.719" gradientUnits="userSpaceOnUse">
<stop/>
<stop offset="1" stop-color="white"/>
</linearGradient>
<linearGradient id="paint55_linear_1006_6431" x1="409.5" y1="703" x2="132.153" y2="586.719" gradientUnits="userSpaceOnUse">
<stop/>
<stop offset="1" stop-color="white"/>
</linearGradient>
<linearGradient id="paint56_linear_1006_6431" x1="565.5" y1="703" x2="288.153" y2="586.719" gradientUnits="userSpaceOnUse">
<stop/>
<stop offset="1" stop-color="white"/>
</linearGradient>
<linearGradient id="paint57_linear_1006_6431" x1="721.5" y1="703" x2="444.153" y2="586.719" gradientUnits="userSpaceOnUse">
<stop/>
<stop offset="1" stop-color="white"/>
</linearGradient>
<linearGradient id="paint58_linear_1006_6431" x1="877.5" y1="703" x2="600.153" y2="586.719" gradientUnits="userSpaceOnUse">
<stop/>
<stop offset="1" stop-color="white"/>
</linearGradient>
<linearGradient id="paint59_linear_1006_6431" x1="1033.5" y1="703" x2="756.153" y2="586.719" gradientUnits="userSpaceOnUse">
<stop/>
<stop offset="1" stop-color="white"/>
</linearGradient>
<linearGradient id="paint60_linear_1006_6431" x1="1189.5" y1="703" x2="912.153" y2="586.719" gradientUnits="userSpaceOnUse">
<stop/>
<stop offset="1" stop-color="white"/>
</linearGradient>
<linearGradient id="paint61_linear_1006_6431" x1="1345.5" y1="703" x2="1068.15" y2="586.719" gradientUnits="userSpaceOnUse">
<stop/>
<stop offset="1" stop-color="white"/>
</linearGradient>
<linearGradient id="paint62_linear_1006_6431" x1="1501.5" y1="703" x2="1224.15" y2="586.719" gradientUnits="userSpaceOnUse">
<stop/>
<stop offset="1" stop-color="white"/>
</linearGradient>
<linearGradient id="paint63_linear_1006_6431" x1="1657.5" y1="703" x2="1380.15" y2="586.719" gradientUnits="userSpaceOnUse">
<stop/>
<stop offset="1" stop-color="white"/>
</linearGradient>
<linearGradient id="paint64_linear_1006_6431" x1="1813.5" y1="703" x2="1536.15" y2="586.719" gradientUnits="userSpaceOnUse">
<stop/>
<stop offset="1" stop-color="white"/>
</linearGradient>
<linearGradient id="paint65_linear_1006_6431" x1="1969.5" y1="703" x2="1692.15" y2="586.719" gradientUnits="userSpaceOnUse">
<stop/>
<stop offset="1" stop-color="white"/>
</linearGradient>
<linearGradient id="paint66_linear_1006_6431" x1="2125.5" y1="703" x2="1848.15" y2="586.719" gradientUnits="userSpaceOnUse">
<stop/>
<stop offset="1" stop-color="white"/>
</linearGradient>
<linearGradient id="paint67_linear_1006_6431" x1="253.5" y1="967" x2="-23.8467" y2="850.719" gradientUnits="userSpaceOnUse">
<stop/>
<stop offset="1" stop-color="white"/>
</linearGradient>
<linearGradient id="paint68_linear_1006_6431" x1="409.5" y1="967" x2="132.153" y2="850.719" gradientUnits="userSpaceOnUse">
<stop/>
<stop offset="1" stop-color="white"/>
</linearGradient>
<linearGradient id="paint69_linear_1006_6431" x1="565.5" y1="967" x2="288.153" y2="850.719" gradientUnits="userSpaceOnUse">
<stop/>
<stop offset="1" stop-color="white"/>
</linearGradient>
<linearGradient id="paint70_linear_1006_6431" x1="721.5" y1="967" x2="444.153" y2="850.719" gradientUnits="userSpaceOnUse">
<stop/>
<stop offset="1" stop-color="white"/>
</linearGradient>
<linearGradient id="paint71_linear_1006_6431" x1="877.5" y1="967" x2="600.153" y2="850.719" gradientUnits="userSpaceOnUse">
<stop/>
<stop offset="1" stop-color="white"/>
</linearGradient>
<linearGradient id="paint72_linear_1006_6431" x1="1033.5" y1="967" x2="756.153" y2="850.719" gradientUnits="userSpaceOnUse">
<stop/>
<stop offset="1" stop-color="white"/>
</linearGradient>
<linearGradient id="paint73_linear_1006_6431" x1="1189.5" y1="967" x2="912.153" y2="850.719" gradientUnits="userSpaceOnUse">
<stop/>
<stop offset="1" stop-color="white"/>
</linearGradient>
<linearGradient id="paint74_linear_1006_6431" x1="1345.5" y1="967" x2="1068.15" y2="850.719" gradientUnits="userSpaceOnUse">
<stop/>
<stop offset="1" stop-color="white"/>
</linearGradient>
<linearGradient id="paint75_linear_1006_6431" x1="1501.5" y1="967" x2="1224.15" y2="850.719" gradientUnits="userSpaceOnUse">
<stop/>
<stop offset="1" stop-color="white"/>
</linearGradient>
<linearGradient id="paint76_linear_1006_6431" x1="1657.5" y1="967" x2="1380.15" y2="850.719" gradientUnits="userSpaceOnUse">
<stop/>
<stop offset="1" stop-color="white"/>
</linearGradient>
<linearGradient id="paint77_linear_1006_6431" x1="1813.5" y1="967" x2="1536.15" y2="850.719" gradientUnits="userSpaceOnUse">
<stop/>
<stop offset="1" stop-color="white"/>
</linearGradient>
<linearGradient id="paint78_linear_1006_6431" x1="1969.5" y1="967" x2="1692.15" y2="850.719" gradientUnits="userSpaceOnUse">
<stop/>
<stop offset="1" stop-color="white"/>
</linearGradient>
<linearGradient id="paint79_linear_1006_6431" x1="2125.5" y1="967" x2="1848.15" y2="850.719" gradientUnits="userSpaceOnUse">
<stop/>
<stop offset="1" stop-color="white"/>
</linearGradient>
<linearGradient id="paint80_linear_1006_6431" x1="175.5" y1="835" x2="-101.847" y2="718.719" gradientUnits="userSpaceOnUse">
<stop/>
<stop offset="1" stop-color="white"/>
</linearGradient>
<linearGradient id="paint81_linear_1006_6431" x1="331.5" y1="835" x2="54.1533" y2="718.719" gradientUnits="userSpaceOnUse">
<stop/>
<stop offset="1" stop-color="white"/>
</linearGradient>
<linearGradient id="paint82_linear_1006_6431" x1="487.5" y1="835" x2="210.153" y2="718.719" gradientUnits="userSpaceOnUse">
<stop/>
<stop offset="1" stop-color="white"/>
</linearGradient>
<linearGradient id="paint83_linear_1006_6431" x1="643.5" y1="835" x2="366.153" y2="718.719" gradientUnits="userSpaceOnUse">
<stop/>
<stop offset="1" stop-color="white"/>
</linearGradient>
<linearGradient id="paint84_linear_1006_6431" x1="799.5" y1="835" x2="522.153" y2="718.719" gradientUnits="userSpaceOnUse">
<stop/>
<stop offset="1" stop-color="white"/>
</linearGradient>
<linearGradient id="paint85_linear_1006_6431" x1="955.5" y1="835" x2="678.153" y2="718.719" gradientUnits="userSpaceOnUse">
<stop/>
<stop offset="1" stop-color="white"/>
</linearGradient>
<linearGradient id="paint86_linear_1006_6431" x1="1111.5" y1="835" x2="834.153" y2="718.719" gradientUnits="userSpaceOnUse">
<stop/>
<stop offset="1" stop-color="white"/>
</linearGradient>
<linearGradient id="paint87_linear_1006_6431" x1="1267.5" y1="835" x2="990.153" y2="718.719" gradientUnits="userSpaceOnUse">
<stop/>
<stop offset="1" stop-color="white"/>
</linearGradient>
<linearGradient id="paint88_linear_1006_6431" x1="1423.5" y1="835" x2="1146.15" y2="718.719" gradientUnits="userSpaceOnUse">
<stop/>
<stop offset="1" stop-color="white"/>
</linearGradient>
<linearGradient id="paint89_linear_1006_6431" x1="1579.5" y1="835" x2="1302.15" y2="718.719" gradientUnits="userSpaceOnUse">
<stop/>
<stop offset="1" stop-color="white"/>
</linearGradient>
<linearGradient id="paint90_linear_1006_6431" x1="1735.5" y1="835" x2="1458.15" y2="718.719" gradientUnits="userSpaceOnUse">
<stop/>
<stop offset="1" stop-color="white"/>
</linearGradient>
<linearGradient id="paint91_linear_1006_6431" x1="1891.5" y1="835" x2="1614.15" y2="718.719" gradientUnits="userSpaceOnUse">
<stop/>
<stop offset="1" stop-color="white"/>
</linearGradient>
<linearGradient id="paint92_linear_1006_6431" x1="2047.5" y1="835" x2="1770.15" y2="718.719" gradientUnits="userSpaceOnUse">
<stop/>
<stop offset="1" stop-color="white"/>
</linearGradient>
<linearGradient id="paint93_linear_1006_6431" x1="2203.5" y1="835" x2="1926.15" y2="718.719" gradientUnits="userSpaceOnUse">
<stop/>
<stop offset="1" stop-color="white"/>
</linearGradient>
<linearGradient id="paint94_linear_1006_6431" x1="175.5" y1="1099" x2="-101.847" y2="982.719" gradientUnits="userSpaceOnUse">
<stop/>
<stop offset="1" stop-color="white"/>
</linearGradient>
<linearGradient id="paint95_linear_1006_6431" x1="331.5" y1="1099" x2="54.1533" y2="982.719" gradientUnits="userSpaceOnUse">
<stop/>
<stop offset="1" stop-color="white"/>
</linearGradient>
<linearGradient id="paint96_linear_1006_6431" x1="487.5" y1="1099" x2="210.153" y2="982.719" gradientUnits="userSpaceOnUse">
<stop/>
<stop offset="1" stop-color="white"/>
</linearGradient>
<linearGradient id="paint97_linear_1006_6431" x1="643.5" y1="1099" x2="366.153" y2="982.719" gradientUnits="userSpaceOnUse">
<stop/>
<stop offset="1" stop-color="white"/>
</linearGradient>
<linearGradient id="paint98_linear_1006_6431" x1="799.5" y1="1099" x2="522.153" y2="982.719" gradientUnits="userSpaceOnUse">
<stop/>
<stop offset="1" stop-color="white"/>
</linearGradient>
<linearGradient id="paint99_linear_1006_6431" x1="955.5" y1="1099" x2="678.153" y2="982.719" gradientUnits="userSpaceOnUse">
<stop/>
<stop offset="1" stop-color="white"/>
</linearGradient>
<linearGradient id="paint100_linear_1006_6431" x1="1111.5" y1="1099" x2="834.153" y2="982.719" gradientUnits="userSpaceOnUse">
<stop/>
<stop offset="1" stop-color="white"/>
</linearGradient>
<linearGradient id="paint101_linear_1006_6431" x1="1267.5" y1="1099" x2="990.153" y2="982.719" gradientUnits="userSpaceOnUse">
<stop/>
<stop offset="1" stop-color="white"/>
</linearGradient>
<linearGradient id="paint102_linear_1006_6431" x1="1423.5" y1="1099" x2="1146.15" y2="982.719" gradientUnits="userSpaceOnUse">
<stop/>
<stop offset="1" stop-color="white"/>
</linearGradient>
<linearGradient id="paint103_linear_1006_6431" x1="1579.5" y1="1099" x2="1302.15" y2="982.719" gradientUnits="userSpaceOnUse">
<stop/>
<stop offset="1" stop-color="white"/>
</linearGradient>
<linearGradient id="paint104_linear_1006_6431" x1="1735.5" y1="1099" x2="1458.15" y2="982.719" gradientUnits="userSpaceOnUse">
<stop/>
<stop offset="1" stop-color="white"/>
</linearGradient>
<linearGradient id="paint105_linear_1006_6431" x1="1891.5" y1="1099" x2="1614.15" y2="982.719" gradientUnits="userSpaceOnUse">
<stop/>
<stop offset="1" stop-color="white"/>
</linearGradient>
<linearGradient id="paint106_linear_1006_6431" x1="2047.5" y1="1099" x2="1770.15" y2="982.719" gradientUnits="userSpaceOnUse">
<stop/>
<stop offset="1" stop-color="white"/>
</linearGradient>
<linearGradient id="paint107_linear_1006_6431" x1="2203.5" y1="1099" x2="1926.15" y2="982.719" gradientUnits="userSpaceOnUse">
<stop/>
<stop offset="1" stop-color="white"/>
</linearGradient>
<linearGradient id="paint108_linear_1006_6431" x1="175.5" y1="43" x2="-101.847" y2="-73.2813" gradientUnits="userSpaceOnUse">
<stop/>
<stop offset="1" stop-color="white"/>
</linearGradient>
<linearGradient id="paint109_linear_1006_6431" x1="331.5" y1="43" x2="54.1533" y2="-73.2813" gradientUnits="userSpaceOnUse">
<stop/>
<stop offset="1" stop-color="white"/>
</linearGradient>
<linearGradient id="paint110_linear_1006_6431" x1="487.5" y1="43" x2="210.153" y2="-73.2813" gradientUnits="userSpaceOnUse">
<stop/>
<stop offset="1" stop-color="white"/>
</linearGradient>
<linearGradient id="paint111_linear_1006_6431" x1="643.5" y1="43" x2="366.153" y2="-73.2813" gradientUnits="userSpaceOnUse">
<stop/>
<stop offset="1" stop-color="white"/>
</linearGradient>
<linearGradient id="paint112_linear_1006_6431" x1="799.5" y1="43" x2="522.153" y2="-73.2813" gradientUnits="userSpaceOnUse">
<stop/>
<stop offset="1" stop-color="white"/>
</linearGradient>
<linearGradient id="paint113_linear_1006_6431" x1="955.5" y1="43" x2="678.153" y2="-73.2813" gradientUnits="userSpaceOnUse">
<stop/>
<stop offset="1" stop-color="white"/>
</linearGradient>
<linearGradient id="paint114_linear_1006_6431" x1="1111.5" y1="43" x2="834.153" y2="-73.2813" gradientUnits="userSpaceOnUse">
<stop/>
<stop offset="1" stop-color="white"/>
</linearGradient>
<linearGradient id="paint115_linear_1006_6431" x1="1267.5" y1="43" x2="990.153" y2="-73.2813" gradientUnits="userSpaceOnUse">
<stop/>
<stop offset="1" stop-color="white"/>
</linearGradient>
<linearGradient id="paint116_linear_1006_6431" x1="1423.5" y1="43" x2="1146.15" y2="-73.2813" gradientUnits="userSpaceOnUse">
<stop/>
<stop offset="1" stop-color="white"/>
</linearGradient>
<linearGradient id="paint117_linear_1006_6431" x1="1579.5" y1="43" x2="1302.15" y2="-73.2813" gradientUnits="userSpaceOnUse">
<stop/>
<stop offset="1" stop-color="white"/>
</linearGradient>
<linearGradient id="paint118_linear_1006_6431" x1="1735.5" y1="43" x2="1458.15" y2="-73.2813" gradientUnits="userSpaceOnUse">
<stop/>
<stop offset="1" stop-color="white"/>
</linearGradient>
<linearGradient id="paint119_linear_1006_6431" x1="1891.5" y1="43" x2="1614.15" y2="-73.2813" gradientUnits="userSpaceOnUse">
<stop/>
<stop offset="1" stop-color="white"/>
</linearGradient>
<linearGradient id="paint120_linear_1006_6431" x1="2047.5" y1="43" x2="1770.15" y2="-73.2813" gradientUnits="userSpaceOnUse">
<stop/>
<stop offset="1" stop-color="white"/>
</linearGradient>
<linearGradient id="paint121_linear_1006_6431" x1="2203.5" y1="43" x2="1926.15" y2="-73.2813" gradientUnits="userSpaceOnUse">
<stop/>
<stop offset="1" stop-color="white"/>
</linearGradient>
<clipPath id="clip0_1006_6431">
<rect width="2028" height="1024" fill="white"/>
</clipPath>
</defs>
</svg>
