<svg width="1056" height="2028" viewBox="0 0 1056 2028" fill="none" xmlns="http://www.w3.org/2000/svg">
<path d="M876.05 1.99999L961.959 2L1005 78L961.959 154L876.05 154L833 78L876.05 1.99999Z" fill="#DFE9EB"/>
<path d="M876.05 158L961.959 158L1005 234L961.959 310L876.05 310L833 234L876.05 158Z" fill="#DFE9EB"/>
<path d="M876.05 314L961.959 314L1005 390L961.959 466L876.05 466L833 390L876.05 314Z" fill="#DFE9EB"/>
<path d="M876.05 470L961.959 470L1005 546L961.959 622L876.05 622L833 546L876.05 470Z" fill="#DFE9EB"/>
<path d="M876.05 626L961.959 626L1005 702L961.959 778L876.05 778L833 702L876.05 626Z" fill="#DFE9EB"/>
<path d="M876.05 782L961.959 782L1005 858L961.959 934L876.05 934L833 858L876.05 782Z" fill="#DFE9EB"/>
<path d="M876.05 938L961.959 938L1005 1014L961.959 1090L876.05 1090L833 1014L876.05 938Z" fill="#DFE9EB"/>
<path d="M876.05 1094L961.959 1094L1005 1170L961.959 1246L876.05 1246L833 1170L876.05 1094Z" fill="#DFE9EB"/>
<path d="M876.05 1250L961.959 1250L1005 1326L961.959 1402L876.05 1402L833 1326L876.05 1250Z" fill="#DFE9EB"/>
<path d="M876.05 1406L961.959 1406L1005 1482L961.959 1558L876.05 1558L833 1482L876.05 1406Z" fill="#DFE9EB"/>
<path d="M876.05 1562L961.959 1562L1005 1638L961.959 1714L876.05 1714L833 1638L876.05 1562Z" fill="#DFE9EB"/>
<path d="M876.05 1718L961.959 1718L1005 1794L961.959 1870L876.05 1870L833 1794L876.05 1718Z" fill="#DFE9EB"/>
<path d="M876.05 1874L961.959 1874L1005 1950L961.959 2026L876.05 2026L833 1950L876.05 1874Z" fill="#DFE9EB"/>
<path d="M744.05 -76L829.959 -76L873 0L829.959 76L744.05 76L701 -7.51836e-06L744.05 -76Z" fill="#DFE9EB"/>
<path d="M744.05 80L829.959 80L873 156L829.959 232L744.05 232L701 156L744.05 80Z" fill="#DFE9EB"/>
<path d="M744.05 236L829.959 236L873 312L829.959 388L744.05 388L701 312L744.05 236Z" fill="#DFE9EB"/>
<path d="M744.05 392L829.959 392L873 468L829.959 544L744.05 544L701 468L744.05 392Z" fill="#DFE9EB"/>
<path d="M744.05 548L829.959 548L873 624L829.959 700L744.05 700L701 624L744.05 548Z" fill="#DFE9EB"/>
<path d="M744.05 704L829.959 704L873 780L829.959 856L744.05 856L701 780L744.05 704Z" fill="#DFE9EB"/>
<path d="M744.05 860L829.959 860L873 936L829.959 1012L744.05 1012L701 936L744.05 860Z" fill="#DFE9EB"/>
<path d="M744.05 1016L829.959 1016L873 1092L829.959 1168L744.05 1168L701 1092L744.05 1016Z" fill="#DFE9EB"/>
<path d="M744.05 1172L829.959 1172L873 1248L829.959 1324L744.05 1324L701 1248L744.05 1172Z" fill="#DFE9EB"/>
<path d="M744.05 1328L829.959 1328L873 1404L829.959 1480L744.05 1480L701 1404L744.05 1328Z" fill="#DFE9EB"/>
<path d="M744.05 1484L829.959 1484L873 1560L829.959 1636L744.05 1636L701 1560L744.05 1484Z" fill="#DFE9EB"/>
<path d="M744.05 1640L829.959 1640L873 1716L829.959 1792L744.05 1792L701 1716L744.05 1640Z" fill="#DFE9EB"/>
<path d="M744.05 1796L829.959 1796L873 1872L829.959 1948L744.05 1948L701 1872L744.05 1796Z" fill="#DFE9EB"/>
<path d="M744.05 1952L829.959 1952L873 2028L829.959 2104L744.05 2104L701 2028L744.05 1952Z" fill="#DFE9EB"/>
<path d="M612.05 1.99999L697.959 2L741 78L697.959 154L612.05 154L569 78L612.05 1.99999Z" fill="#DFE9EB"/>
<path d="M612.05 158L697.959 158L741 234L697.959 310L612.05 310L569 234L612.05 158Z" fill="#DFE9EB"/>
<path d="M612.05 314L697.959 314L741 390L697.959 466L612.05 466L569 390L612.05 314Z" fill="#DFE9EB"/>
<path d="M612.05 470L697.959 470L741 546L697.959 622L612.05 622L569 546L612.05 470Z" fill="#DFE9EB"/>
<path d="M612.05 626L697.959 626L741 702L697.959 778L612.05 778L569 702L612.05 626Z" fill="#DFE9EB"/>
<path d="M612.05 782L697.959 782L741 858L697.959 934L612.05 934L569 858L612.05 782Z" fill="#DFE9EB"/>
<path d="M612.05 938L697.959 938L741 1014L697.959 1090L612.05 1090L569 1014L612.05 938Z" fill="#DFE9EB"/>
<path d="M612.05 1094L697.959 1094L741 1170L697.959 1246L612.05 1246L569 1170L612.05 1094Z" fill="#DFE9EB"/>
<path d="M612.05 1250L697.959 1250L741 1326L697.959 1402L612.05 1402L569 1326L612.05 1250Z" fill="#DFE9EB"/>
<path d="M612.05 1406L697.959 1406L741 1482L697.959 1558L612.05 1558L569 1482L612.05 1406Z" fill="#DFE9EB"/>
<path d="M612.05 1562L697.959 1562L741 1638L697.959 1714L612.05 1714L569 1638L612.05 1562Z" fill="#DFE9EB"/>
<path d="M612.05 1718L697.959 1718L741 1794L697.959 1870L612.05 1870L569 1794L612.05 1718Z" fill="#DFE9EB"/>
<path d="M612.05 1874L697.959 1874L741 1950L697.959 2026L612.05 2026L569 1950L612.05 1874Z" fill="#DFE9EB"/>
<path d="M480.05 80L565.959 80L609 156L565.959 232L480.05 232L437 156L480.05 80Z" fill="#DFE9EB"/>
<path d="M480.05 -76L565.959 -76L609 0L565.959 76L480.05 76L437 -7.51836e-06L480.05 -76Z" fill="#DFE9EB"/>
<path d="M480.05 236L565.959 236L609 312L565.959 388L480.05 388L437 312L480.05 236Z" fill="#DFE9EB"/>
<path d="M480.05 392L565.959 392L609 468L565.959 544L480.05 544L437 468L480.05 392Z" fill="#DFE9EB"/>
<path d="M480.05 548L565.959 548L609 624L565.959 700L480.05 700L437 624L480.05 548Z" fill="#DFE9EB"/>
<path d="M480.05 704L565.959 704L609 780L565.959 856L480.05 856L437 780L480.05 704Z" fill="#DFE9EB"/>
<path d="M480.05 860L565.959 860L609 936L565.959 1012L480.05 1012L437 936L480.05 860Z" fill="#DFE9EB"/>
<path d="M480.05 1016L565.959 1016L609 1092L565.959 1168L480.05 1168L437 1092L480.05 1016Z" fill="#DFE9EB"/>
<path d="M480.05 1172L565.959 1172L609 1248L565.959 1324L480.05 1324L437 1248L480.05 1172Z" fill="#DFE9EB"/>
<path d="M480.05 1328L565.959 1328L609 1404L565.959 1480L480.05 1480L437 1404L480.05 1328Z" fill="#DFE9EB"/>
<path d="M480.05 1484L565.959 1484L609 1560L565.959 1636L480.05 1636L437 1560L480.05 1484Z" fill="#DFE9EB"/>
<path d="M480.05 1640L565.959 1640L609 1716L565.959 1792L480.05 1792L437 1716L480.05 1640Z" fill="#DFE9EB"/>
<path d="M480.05 1796L565.959 1796L609 1872L565.959 1948L480.05 1948L437 1872L480.05 1796Z" fill="#DFE9EB"/>
<path d="M480.05 1952L565.959 1952L609 2028L565.959 2104L480.05 2104L437 2028L480.05 1952Z" fill="#DFE9EB"/>
<path d="M480.05 80L565.959 80L609 156L565.959 232L480.05 232L437 156L480.05 80Z" fill="#DFE9EB"/>
<path d="M480.05 -76L565.959 -76L609 0L565.959 76L480.05 76L437 -7.51836e-06L480.05 -76Z" fill="#DFE9EB"/>
<path d="M480.05 236L565.959 236L609 312L565.959 388L480.05 388L437 312L480.05 236Z" fill="#DFE9EB"/>
<path d="M480.05 392L565.959 392L609 468L565.959 544L480.05 544L437 468L480.05 392Z" fill="#DFE9EB"/>
<path d="M480.05 548L565.959 548L609 624L565.959 700L480.05 700L437 624L480.05 548Z" fill="#DFE9EB"/>
<path d="M480.05 704L565.959 704L609 780L565.959 856L480.05 856L437 780L480.05 704Z" fill="#DFE9EB"/>
<path d="M480.05 860L565.959 860L609 936L565.959 1012L480.05 1012L437 936L480.05 860Z" fill="#DFE9EB"/>
<path d="M480.05 1016L565.959 1016L609 1092L565.959 1168L480.05 1168L437 1092L480.05 1016Z" fill="#DFE9EB"/>
<path d="M480.05 1172L565.959 1172L609 1248L565.959 1324L480.05 1324L437 1248L480.05 1172Z" fill="#DFE9EB"/>
<path d="M480.05 1328L565.959 1328L609 1404L565.959 1480L480.05 1480L437 1404L480.05 1328Z" fill="#DFE9EB"/>
<path d="M480.05 1484L565.959 1484L609 1560L565.959 1636L480.05 1636L437 1560L480.05 1484Z" fill="#DFE9EB"/>
<path d="M480.05 1640L565.959 1640L609 1716L565.959 1792L480.05 1792L437 1716L480.05 1640Z" fill="#DFE9EB"/>
<path d="M480.05 1796L565.959 1796L609 1872L565.959 1948L480.05 1948L437 1872L480.05 1796Z" fill="#DFE9EB"/>
<path d="M480.05 1952L565.959 1952L609 2028L565.959 2104L480.05 2104L437 2028L480.05 1952Z" fill="#DFE9EB"/>
<path d="M348.05 1.99999L433.959 2L477 78L433.959 154L348.05 154L305 78L348.05 1.99999Z" fill="#DFE9EB"/>
<path d="M348.05 158L433.959 158L477 234L433.959 310L348.05 310L305 234L348.05 158Z" fill="#DFE9EB"/>
<path d="M348.05 314L433.959 314L477 390L433.959 466L348.05 466L305 390L348.05 314Z" fill="#DFE9EB"/>
<path d="M348.05 470L433.959 470L477 546L433.959 622L348.05 622L305 546L348.05 470Z" fill="#DFE9EB"/>
<path d="M348.05 626L433.959 626L477 702L433.959 778L348.05 778L305 702L348.05 626Z" fill="#DFE9EB"/>
<path d="M348.05 782L433.959 782L477 858L433.959 934L348.05 934L305 858L348.05 782Z" fill="#DFE9EB"/>
<path d="M348.05 938L433.959 938L477 1014L433.959 1090L348.05 1090L305 1014L348.05 938Z" fill="#DFE9EB"/>
<path d="M348.05 1094L433.959 1094L477 1170L433.959 1246L348.05 1246L305 1170L348.05 1094Z" fill="#DFE9EB"/>
<path d="M348.05 1250L433.959 1250L477 1326L433.959 1402L348.05 1402L305 1326L348.05 1250Z" fill="#DFE9EB"/>
<path d="M348.05 1406L433.959 1406L477 1482L433.959 1558L348.05 1558L305 1482L348.05 1406Z" fill="#DFE9EB"/>
<path d="M348.05 1562L433.959 1562L477 1638L433.959 1714L348.05 1714L305 1638L348.05 1562Z" fill="#DFE9EB"/>
<path d="M348.05 1718L433.959 1718L477 1794L433.959 1870L348.05 1870L305 1794L348.05 1718Z" fill="#DFE9EB"/>
<path d="M348.05 1874L433.959 1874L477 1950L433.959 2026L348.05 2026L305 1950L348.05 1874Z" fill="#DFE9EB"/>
<path d="M84.0503 1.99999L169.959 2L213 78L169.959 154L84.0503 154L41 78L84.0503 1.99999Z" fill="#DFE9EB"/>
<path d="M84.0503 158L169.959 158L213 234L169.959 310L84.0503 310L41 234L84.0503 158Z" fill="#DFE9EB"/>
<path d="M84.0503 314L169.959 314L213 390L169.959 466L84.0503 466L41 390L84.0503 314Z" fill="#DFE9EB"/>
<path d="M84.0503 470L169.959 470L213 546L169.959 622L84.0503 622L41 546L84.0503 470Z" fill="#DFE9EB"/>
<path d="M84.0503 626L169.959 626L213 702L169.959 778L84.0503 778L41 702L84.0503 626Z" fill="#DFE9EB"/>
<path d="M84.0503 782L169.959 782L213 858L169.959 934L84.0503 934L41 858L84.0503 782Z" fill="#DFE9EB"/>
<path d="M84.0503 938L169.959 938L213 1014L169.959 1090L84.0503 1090L41 1014L84.0503 938Z" fill="#DFE9EB"/>
<path d="M84.0503 1094L169.959 1094L213 1170L169.959 1246L84.0503 1246L41 1170L84.0503 1094Z" fill="#DFE9EB"/>
<path d="M84.0503 1250L169.959 1250L213 1326L169.959 1402L84.0503 1402L41 1326L84.0503 1250Z" fill="#DFE9EB"/>
<path d="M84.0503 1406L169.959 1406L213 1482L169.959 1558L84.0503 1558L41 1482L84.0503 1406Z" fill="#DFE9EB"/>
<path d="M84.0503 1562L169.959 1562L213 1638L169.959 1714L84.0503 1714L41 1638L84.0503 1562Z" fill="#DFE9EB"/>
<path d="M84.0503 1718L169.959 1718L213 1794L169.959 1870L84.0503 1870L41 1794L84.0503 1718Z" fill="#DFE9EB"/>
<path d="M84.0503 1874L169.959 1874L213 1950L169.959 2026L84.0503 2026L41 1950L84.0503 1874Z" fill="#DFE9EB"/>
<path d="M216.05 -76L301.959 -76L345 0L301.959 76L216.05 76L173 -7.51836e-06L216.05 -76Z" fill="#DFE9EB"/>
<path d="M216.05 80L301.959 80L345 156L301.959 232L216.05 232L173 156L216.05 80Z" fill="#DFE9EB"/>
<path d="M216.05 236L301.959 236L345 312L301.959 388L216.05 388L173 312L216.05 236Z" fill="#DFE9EB"/>
<path d="M216.05 392L301.959 392L345 468L301.959 544L216.05 544L173 468L216.05 392Z" fill="#DFE9EB"/>
<path d="M216.05 548L301.959 548L345 624L301.959 700L216.05 700L173 624L216.05 548Z" fill="#DFE9EB"/>
<path d="M216.05 704L301.959 704L345 780L301.959 856L216.05 856L173 780L216.05 704Z" fill="#DFE9EB"/>
<path d="M216.05 860L301.959 860L345 936L301.959 1012L216.05 1012L173 936L216.05 860Z" fill="#DFE9EB"/>
<path d="M216.05 1016L301.959 1016L345 1092L301.959 1168L216.05 1168L173 1092L216.05 1016Z" fill="#DFE9EB"/>
<path d="M216.05 1172L301.959 1172L345 1248L301.959 1324L216.05 1324L173 1248L216.05 1172Z" fill="#DFE9EB"/>
<path d="M216.05 1328L301.959 1328L345 1404L301.959 1480L216.05 1480L173 1404L216.05 1328Z" fill="#DFE9EB"/>
<path d="M216.05 1484L301.959 1484L345 1560L301.959 1636L216.05 1636L173 1560L216.05 1484Z" fill="#DFE9EB"/>
<path d="M216.05 1640L301.959 1640L345 1716L301.959 1792L216.05 1792L173 1716L216.05 1640Z" fill="#DFE9EB"/>
<path d="M216.05 1796L301.959 1796L345 1872L301.959 1948L216.05 1948L173 1872L216.05 1796Z" fill="#DFE9EB"/>
<path d="M216.05 1952L301.959 1952L345 2028L301.959 2104L216.05 2104L173 2028L216.05 1952Z" fill="#DFE9EB"/>
<path d="M-47.9497 -76L37.9593 -76L81 0L37.9593 76L-47.9497 76L-91 -7.51836e-06L-47.9497 -76Z" fill="#DFE9EB"/>
<path d="M-47.9497 80L37.9593 80L81 156L37.9593 232L-47.9497 232L-91 156L-47.9497 80Z" fill="#DFE9EB"/>
<path d="M-47.9497 236L37.9593 236L81 312L37.9593 388L-47.9497 388L-91 312L-47.9497 236Z" fill="#DFE9EB"/>
<path d="M-47.9497 392L37.9593 392L81 468L37.9593 544L-47.9497 544L-91 468L-47.9497 392Z" fill="#DFE9EB"/>
<path d="M-47.9497 548L37.9593 548L81 624L37.9593 700L-47.9497 700L-91 624L-47.9497 548Z" fill="#DFE9EB"/>
<path d="M-47.9497 704L37.9593 704L81 780L37.9593 856L-47.9497 856L-91 780L-47.9497 704Z" fill="#DFE9EB"/>
<path d="M-47.9497 860L37.9593 860L81 936L37.9593 1012L-47.9497 1012L-91 936L-47.9497 860Z" fill="#DFE9EB"/>
<path d="M-47.9497 1016L37.9593 1016L81 1092L37.9593 1168L-47.9497 1168L-91 1092L-47.9497 1016Z" fill="#DFE9EB"/>
<path d="M-47.9497 1172L37.9593 1172L81 1248L37.9593 1324L-47.9497 1324L-91 1248L-47.9497 1172Z" fill="#DFE9EB"/>
<path d="M-47.9497 1328L37.9593 1328L81 1404L37.9593 1480L-47.9497 1480L-91 1404L-47.9497 1328Z" fill="#DFE9EB"/>
<path d="M-47.9497 1484L37.9593 1484L81 1560L37.9593 1636L-47.9497 1636L-91 1560L-47.9497 1484Z" fill="#DFE9EB"/>
<path d="M-47.9497 1640L37.9593 1640L81 1716L37.9593 1792L-47.9497 1792L-91 1716L-47.9497 1640Z" fill="#DFE9EB"/>
<path d="M-47.9497 1796L37.9593 1796L81 1872L37.9593 1948L-47.9497 1948L-91 1872L-47.9497 1796Z" fill="#DFE9EB"/>
<path d="M-47.9497 1952L37.9593 1952L81 2028L37.9593 2104L-47.9497 2104L-91 2028L-47.9497 1952Z" fill="#DFE9EB"/>
<path d="M1008.05 -76L1093.96 -76L1137 0L1093.96 76L1008.05 76L965 -7.51836e-06L1008.05 -76Z" fill="#DFE9EB"/>
<path d="M1008.05 80L1093.96 80L1137 156L1093.96 232L1008.05 232L965 156L1008.05 80Z" fill="#DFE9EB"/>
<path d="M1008.05 236L1093.96 236L1137 312L1093.96 388L1008.05 388L965 312L1008.05 236Z" fill="#DFE9EB"/>
<path d="M1008.05 392L1093.96 392L1137 468L1093.96 544L1008.05 544L965 468L1008.05 392Z" fill="#DFE9EB"/>
<path d="M1008.05 548L1093.96 548L1137 624L1093.96 700L1008.05 700L965 624L1008.05 548Z" fill="#DFE9EB"/>
<path d="M1008.05 704L1093.96 704L1137 780L1093.96 856L1008.05 856L965 780L1008.05 704Z" fill="#DFE9EB"/>
<path d="M1008.05 860L1093.96 860L1137 936L1093.96 1012L1008.05 1012L965 936L1008.05 860Z" fill="#DFE9EB"/>
<path d="M1008.05 1016L1093.96 1016L1137 1092L1093.96 1168L1008.05 1168L965 1092L1008.05 1016Z" fill="#DFE9EB"/>
<path d="M1008.05 1172L1093.96 1172L1137 1248L1093.96 1324L1008.05 1324L965 1248L1008.05 1172Z" fill="#DFE9EB"/>
<path d="M1008.05 1328L1093.96 1328L1137 1404L1093.96 1480L1008.05 1480L965 1404L1008.05 1328Z" fill="#DFE9EB"/>
<path d="M1008.05 1484L1093.96 1484L1137 1560L1093.96 1636L1008.05 1636L965 1560L1008.05 1484Z" fill="#DFE9EB"/>
<path d="M1008.05 1640L1093.96 1640L1137 1716L1093.96 1792L1008.05 1792L965 1716L1008.05 1640Z" fill="#DFE9EB"/>
<path d="M1008.05 1796L1093.96 1796L1137 1872L1093.96 1948L1008.05 1948L965 1872L1008.05 1796Z" fill="#DFE9EB"/>
<path d="M1008.05 1952L1093.96 1952L1137 2028L1093.96 2104L1008.05 2104L965 2028L1008.05 1952Z" fill="#DFE9EB"/>
</svg>
